<?xml version="1.0" encoding="utf-8"?>
<!-- Generator: Adobe Illustrator 19.0.0, SVG Export Plug-In . SVG Version: 6.00 Build 0)  -->
<svg version="1.1" id="Layer_1" xmlns="http://www.w3.org/2000/svg" xmlns:xlink="http://www.w3.org/1999/xlink" x="0px" y="0px"
	 viewBox="0 0 460 80" style="enable-background:new 0 0 460 80;" xml:space="preserve">
<style type="text/css">
	.st0{fill:#FFFFFF;}
	.st1{fill:none;stroke:#FFFFFF;stroke-width:6;stroke-miterlimit:10;}
	.st2{fill:#39444C;}
	.st3{fill:#18A0DA;}
	.st4{fill:none;stroke:#39444C;stroke-width:6;stroke-miterlimit:10;}
</style>
<g id="XMLID_2_">
	<path id="XMLID_65_" class="st0" d="M20.6,30.3c0,1,0.2,3.3,0.4,5.2c-0.2,0.4-1.3,0.5-1.6,0.1c-0.7-2.6-2.2-4.7-6.6-4.7
		c-3.5,0-8.2,2.6-8.2,9.1c0,6.4,4.8,9.9,8.7,9.9c4.6,0,6.3-3.4,6.8-4.7c0.3-0.4,1.4-0.4,1.6,0.1c-0.3,2.1-1,4.3-1.6,5.2
		c-1.4,0.2-3.4,1-6.7,1c-3.1,0-6.1-0.5-8.6-2.2c-2.6-1.8-4.6-4.7-4.6-8.5c0-3.9,1.7-6.7,4.1-8.6c2.4-1.8,5.7-2.8,9.4-2.8
		C16.9,29.4,20.2,30.3,20.6,30.3"/>
	<path id="XMLID_62_" class="st0" d="M51.8,40.3c0,6.5-5,11.1-11.9,11.1c-7.6,0-12.1-4.8-12.1-10.8c0-6.4,5-11.2,12.1-11.2
		C47.8,29.4,51.8,34.5,51.8,40.3 M32.3,39.8c0,4.9,2.3,10,8,10c3.7,0,7.3-2.3,7.3-8.8c0-5.1-2.5-10.1-7.9-10.1
		C36.1,30.9,32.3,33.1,32.3,39.8"/>
	<path id="XMLID_59_" class="st0" d="M60.8,35.6c0-3.1-0.1-3.9-1.2-4.1l-1.5-0.2c-0.4-0.1-0.4-1,0.1-1.2c2.8-0.2,5.5-0.3,9.5-0.3
		c2.8,0,5.2,0.3,7.5,1c4.5,1.5,6.8,5,6.8,9.4c0,3.8-2,7.3-5.9,9.2c-2.2,1.1-5,1.5-7.4,1.5c-1.1,0-2.2,0-3.2-0.1
		c-1,0-1.9-0.1-2.7-0.1c-1.6,0-3.1,0-5,0.1c-0.4-0.1-0.4-0.9-0.1-1.2l0.9-0.1c2.1-0.3,2.3-0.5,2.3-3.8
		C60.8,45.7,60.8,35.6,60.8,35.6z M64.5,45c0,3.1,0.5,4.5,4.2,4.5c5.9,0,8.8-3.5,8.8-9.3c0-5.9-4.2-8.8-9.8-8.8
		c-1.6,0-2.6,0.2-3,0.5c-0.3,0.2-0.3,0.8-0.3,1.9V45z"/>
	<path id="XMLID_58_" class="st0" d="M119.4,35c0-3.3-0.2-3.5-2.4-3.8l-0.9-0.1c-0.3-0.2-0.3-1,0.1-1.2c2,0.1,3.5,0.1,5.1,0.1
		s3.2,0,4.8-0.1c0.4,0.1,0.4,0.9,0.1,1.2l-0.7,0.1c-2.1,0.5-2.4,0.5-2.4,3.8v10.3c0,1.5,0.1,2.8,0.6,3.3c0.4,0.4,1.3,0.8,3.9,0.8
		c3.1,0,4.9-0.1,6.4-4c0.3-0.3,1.2-0.2,1.3,0.2c-0.3,2-0.9,4.4-1.5,5.3c-1.5-0.1-3-0.1-4.4-0.1c-1.4,0-2.7,0-4,0h-4.2
		c-1.6,0-3.1,0-5.1,0.1c-0.4-0.1-0.4-0.9-0.1-1.2l0.9-0.1c2.2-0.3,2.4-0.5,2.4-3.8L119.4,35L119.4,35z"/>
	<path id="XMLID_57_" class="st0" d="M144.6,35c0-3.3-0.2-3.5-2.4-3.8l-0.9-0.1c-0.3-0.2-0.3-1,0.1-1.2c2,0.1,3.5,0.1,5.1,0.1
		s3.2,0,5.1-0.1c0.4,0.1,0.4,0.9,0.1,1.2l-0.9,0.1c-2.2,0.3-2.4,0.5-2.4,3.8v10.7c0,3.3,0.2,3.5,2.4,3.8l0.9,0.1
		c0.3,0.2,0.3,1-0.1,1.2c-1.9-0.1-3.6-0.1-5.1-0.1c-1.6,0-3.1,0-5.1,0.1c-0.4-0.1-0.4-0.9-0.1-1.2l0.9-0.1c2.2-0.3,2.4-0.5,2.4-3.8
		V35z"/>
	<path id="XMLID_56_" class="st0" d="M165.2,41c-2.4-1.2-5.1-3.1-5.1-5.7c0-3.5,2.8-5.9,7.9-5.9c1.8,0,3.6,0.4,5.3,0.7
		c0.4,0.8,0.8,2.6,0.7,4.7c-0.2,0.4-1,0.4-1.3,0.1c-0.4-1.7-2.4-4.1-5.3-4.1s-4.1,1.6-4.1,3.2c0,1.7,2,2.8,4,3.8l3.1,1.5
		c1.8,0.8,4.1,2.9,4.1,6.1c0,3.7-3.1,6.1-8,6.1c-3.1,0-4.9-1-5.6-1.5c-0.4-0.7-1-2.4-1-4.9c0.2-0.5,0.9-0.5,1.3-0.1
		c0.4,1.7,2.5,5.1,5.8,5.1c2.6,0,4.1-1.2,4.1-3.4c0-1.5-0.7-3.1-3.5-4.5L165.2,41z"/>
	<path id="XMLID_55_" class="st0" d="M107.2,45c-0.3,1-2,5.4-6.2,5.5c-4.4,0.1-7.9-1.8-7.9-7.2c0-5.3,4.3-6.7,8-6.6
		c4.1,0.1,5.7,3.7,6.2,4.9c0.3,0.6,2.5,0.4,2.5-0.3c0-3.7-1.8-8.5-4.4-10.2c-2.5-1.6-5.6-2.1-8.7-2.1c-3.3,0-5,0.6-6.4,1.1
		c-0.6,0.8-1.5,2.8-1.7,4.9c-0.1,0.6,1.3,0.7,1.7,0c0.3-0.5,2.5-4.3,6.7-4.3c2.9,0,5.8,2,7.4,4.8c-0.6-0.2-1.7-0.5-3.2-0.6
		c-2.8-0.2-5.6,0.2-8.1,1.6c-2.3,1.3-4.5,3.3-4.5,6.8s1.6,5.5,4.2,7.2c2.5,1.6,5.9,1.8,8.9,1.7c2.6-0.1,5.3-0.6,6.5-1.2
		c0.6-0.8,1.4-3.7,1.6-5.8C110,44.3,107.5,44.1,107.2,45"/>
	<g id="XMLID_4_">
		<path id="XMLID_54_" class="st0" d="M203.6,44.4c0.8,0.5,2,0.9,3.2,0.9c1.9,0,2.9-1,2.9-2.4c0-1.3-0.8-2.1-2.6-2.8
			c-2.3-0.8-3.7-2-3.7-4c0-2.2,1.8-3.8,4.5-3.8c1.4,0,2.5,0.3,3.1,0.7l-0.5,1.5c-0.5-0.3-1.4-0.7-2.7-0.7c-1.9,0-2.6,1.1-2.6,2.1
			c0,1.3,0.9,2,2.8,2.7c2.4,0.9,3.6,2.1,3.6,4.1c0,2.2-1.6,4.1-4.9,4.1c-1.4,0-2.8-0.4-3.6-0.9L203.6,44.4z"/>
		<path id="XMLID_51_" class="st0" d="M223.3,41.4c0,3.7-2.6,5.4-5,5.4c-2.7,0-4.8-2-4.8-5.2c0-3.4,2.2-5.4,5-5.4
			C221.3,36.3,223.3,38.4,223.3,41.4z M215.3,41.5c0,2.2,1.3,3.9,3.1,3.9c1.8,0,3.1-1.6,3.1-3.9c0-1.7-0.9-3.9-3-3.9
			S215.3,39.6,215.3,41.5z"/>
		<path id="XMLID_50_" class="st0" d="M225.6,31.8h1.8v14.8h-1.8V31.8z"/>
		<path id="XMLID_49_" class="st0" d="M239,43.8c0,1,0,2,0.1,2.7h-1.6l-0.1-1.6h0c-0.5,0.8-1.5,1.9-3.3,1.9c-1.6,0-3.5-0.9-3.5-4.4
			v-5.9h1.8v5.6c0,1.9,0.6,3.2,2.3,3.2c1.2,0,2.1-0.8,2.4-1.7c0.1-0.3,0.2-0.6,0.2-0.9v-6.2h1.8L239,43.8
			C239,43.8,239,43.8,239,43.8z"/>
		<path id="XMLID_48_" class="st0" d="M244.2,34.1v2.4h2.6v1.4h-2.6v5.4c0,1.3,0.3,2,1.4,2c0.5,0,0.8,0,1.1-0.1l0.1,1.4
			c-0.3,0.2-0.9,0.3-1.6,0.3c-0.9,0-1.5-0.3-2-0.8c-0.5-0.5-0.7-1.4-0.7-2.6v-5.5h-1.6v-1.4h1.6v-1.9L244.2,34.1z"/>
		<path id="XMLID_45_" class="st0" d="M251,33.6c0,0.6-0.4,1.1-1.2,1.1c-0.6,0-1.1-0.5-1.1-1.1c0-0.6,0.5-1.1,1.1-1.1
			C250.5,32.5,251,33,251,33.6z M248.9,46.6V36.5h1.8v10.1H248.9z"/>
		<path id="XMLID_42_" class="st0" d="M262.9,41.4c0,3.7-2.6,5.4-5,5.4c-2.7,0-4.8-2-4.8-5.2c0-3.4,2.2-5.4,5-5.4
			C261,36.3,262.9,38.4,262.9,41.4z M254.9,41.5c0,2.2,1.3,3.9,3.1,3.9c1.8,0,3.1-1.6,3.1-3.9c0-1.7-0.9-3.9-3-3.9
			S254.9,39.6,254.9,41.5z"/>
		<path id="XMLID_41_" class="st0" d="M265.2,39.2c0-1,0-1.9-0.1-2.7h1.6l0.1,1.7h0c0.5-1,1.7-1.9,3.3-1.9c1.4,0,3.6,0.8,3.6,4.3v6
			H272v-5.8c0-1.6-0.6-3-2.3-3c-1.2,0-2.1,0.8-2.5,1.9c-0.1,0.2-0.1,0.5-0.1,0.8v6.1h-1.8L265.2,39.2L265.2,39.2z"/>
		<path id="XMLID_40_" class="st0" d="M276.6,44.7c0.5,0.3,1.5,0.7,2.4,0.7c1.3,0,2-0.7,2-1.5c0-0.9-0.5-1.4-1.9-1.9
			c-1.8-0.6-2.7-1.6-2.7-2.9c0-1.6,1.3-3,3.5-3c1,0,1.9,0.3,2.5,0.6l-0.5,1.3c-0.4-0.3-1.1-0.6-2.1-0.6c-1.1,0-1.7,0.6-1.7,1.4
			c0,0.8,0.6,1.2,1.9,1.7c1.8,0.7,2.6,1.5,2.6,3.1c0,1.8-1.4,3.1-3.8,3.1c-1.1,0-2.1-0.3-2.8-0.7L276.6,44.7z"/>
		<path id="XMLID_39_" class="st0" d="M291.4,32.5v14h-1.8v-14H291.4z"/>
		<path id="XMLID_38_" class="st0" d="M297.2,34.1h-4.3v-1.5h10.4v1.5H299v12.5h-1.8V34.1L297.2,34.1z"/>
		<path id="XMLID_37_" class="st0" d="M302.4,49.1c0.4-1.2,1-3.5,1.2-5l2-0.2c-0.5,1.8-1.4,4.1-2,5.1L302.4,49.1z"/>
		<path id="XMLID_36_" class="st0" d="M322.2,46.1c-0.7,0.3-2,0.7-3.7,0.7c-4,0-6.9-2.5-6.9-7.1c0-4.4,3-7.4,7.3-7.4
			c1.8,0,2.9,0.4,3.3,0.6l-0.4,1.5c-0.7-0.3-1.7-0.6-2.8-0.6c-3.3,0-5.5,2.1-5.5,5.8c0,3.4,2,5.6,5.4,5.6c1.1,0,2.2-0.2,3-0.6
			L322.2,46.1z"/>
		<path id="XMLID_35_" class="st0" d="M324.4,31.8h1.8v14.8h-1.8V31.8z"/>
		<path id="XMLID_32_" class="st0" d="M338.5,41.4c0,3.7-2.6,5.4-5,5.4c-2.7,0-4.8-2-4.8-5.2c0-3.4,2.2-5.4,5-5.4
			C336.5,36.3,338.5,38.4,338.5,41.4z M330.5,41.5c0,2.2,1.3,3.9,3.1,3.9c1.8,0,3.1-1.6,3.1-3.9c0-1.7-0.9-3.9-3-3.9
			S330.5,39.6,330.5,41.5z"/>
		<path id="XMLID_31_" class="st0" d="M349.2,43.8c0,1,0,2,0.1,2.7h-1.6l-0.1-1.6h0c-0.5,0.8-1.5,1.9-3.3,1.9
			c-1.6,0-3.5-0.9-3.5-4.4v-5.9h1.8v5.6c0,1.9,0.6,3.2,2.3,3.2c1.2,0,2.1-0.8,2.4-1.7c0.1-0.3,0.2-0.6,0.2-0.9v-6.2h1.8L349.2,43.8
			C349.2,43.8,349.2,43.8,349.2,43.8z"/>
		<path id="XMLID_28_" class="st0" d="M361,31.8V44c0,0.9,0,1.9,0.1,2.6h-1.6l-0.1-1.8h0c-0.6,1.1-1.8,2-3.4,2
			c-2.4,0-4.3-2.1-4.3-5.1c0-3.4,2.1-5.4,4.5-5.4c1.5,0,2.6,0.7,3.1,1.5h0v-6L361,31.8L361,31.8z M359.1,40.6c0-0.2,0-0.5-0.1-0.8
			c-0.3-1.2-1.3-2.1-2.6-2.1c-1.9,0-3,1.7-3,3.9c0,2,1,3.7,3,3.7c1.2,0,2.4-0.8,2.7-2.2c0.1-0.3,0.1-0.5,0.1-0.8L359.1,40.6
			L359.1,40.6z"/>
		<path id="XMLID_25_" class="st0" d="M369.5,41.9c0,2.5,1.6,3.5,3.5,3.5c1.3,0,2.1-0.2,2.8-0.5l0.3,1.3c-0.6,0.3-1.8,0.6-3.4,0.6
			c-3.1,0-5-2.1-5-5.1c0-3,1.8-5.4,4.7-5.4c3.3,0,4.2,2.9,4.2,4.8c0,0.4,0,0.7-0.1,0.8L369.5,41.9L369.5,41.9z M374.8,40.5
			c0-1.2-0.5-3-2.5-3c-1.9,0-2.7,1.7-2.8,3H374.8z"/>
		<path id="XMLID_24_" class="st0" d="M381.1,34.1v2.4h2.6v1.4h-2.6v5.4c0,1.3,0.3,2,1.4,2c0.5,0,0.8,0,1.1-0.1l0.1,1.4
			c-0.3,0.2-0.9,0.3-1.6,0.3c-0.9,0-1.5-0.3-2-0.8c-0.5-0.5-0.7-1.4-0.7-2.6v-5.5h-1.6v-1.4h1.6v-1.9L381.1,34.1z"/>
		<path id="XMLID_23_" class="st0" d="M402.1,40.4c-0.1-2-0.2-4.3-0.2-6.1h-0.1c-0.5,1.6-1.1,3.4-1.8,5.3l-2.5,6.8h-1.4l-2.3-6.7
			c-0.7-2-1.2-3.8-1.6-5.5h0c0,1.8-0.2,4.1-0.3,6.2l-0.4,6h-1.7l1-14h2.3l2.4,6.8c0.6,1.7,1.1,3.3,1.4,4.7h0.1
			c0.3-1.4,0.9-3,1.5-4.7l2.5-6.8h2.3l0.9,14h-1.8L402.1,40.4z"/>
		<path id="XMLID_20_" class="st0" d="M416.2,41.4c0,3.7-2.6,5.4-5,5.4c-2.7,0-4.8-2-4.8-5.2c0-3.4,2.2-5.4,5-5.4
			C414.3,36.3,416.2,38.4,416.2,41.4z M408.2,41.5c0,2.2,1.3,3.9,3.1,3.9c1.8,0,3.1-1.6,3.1-3.9c0-1.7-0.9-3.9-3-3.9
			C409.2,37.6,408.2,39.6,408.2,41.5z"/>
		<path id="XMLID_17_" class="st0" d="M418.5,31.8h1.8v6.3h0c0.6-1.1,1.8-1.9,3.4-1.9c2.5,0,4.3,2.1,4.3,5.2c0,3.6-2.3,5.4-4.5,5.4
			c-1.5,0-2.6-0.6-3.4-1.9h-0.1l-0.1,1.7h-1.6c0-0.7,0.1-1.7,0.1-2.6L418.5,31.8L418.5,31.8z M420.3,42.5c0,0.2,0,0.5,0.1,0.7
			c0.3,1.3,1.4,2.1,2.7,2.1c1.9,0,3.1-1.6,3.1-3.9c0-2-1-3.7-3-3.7c-1.3,0-2.4,0.8-2.8,2.3c0,0.2-0.1,0.5-0.1,0.8L420.3,42.5
			L420.3,42.5z"/>
		<path id="XMLID_14_" class="st0" d="M432.4,33.6c0,0.6-0.4,1.1-1.2,1.1c-0.6,0-1.1-0.5-1.1-1.1c0-0.6,0.5-1.1,1.1-1.1
			C432,32.5,432.4,33,432.4,33.6z M430.4,46.6V36.5h1.8v10.1H430.4z"/>
		<path id="XMLID_13_" class="st0" d="M435.3,31.8h1.8v14.8h-1.8V31.8z"/>
		<path id="XMLID_10_" class="st0" d="M442.2,33.6c0,0.6-0.4,1.1-1.2,1.1c-0.6,0-1.1-0.5-1.1-1.1c0-0.6,0.5-1.1,1.1-1.1
			C441.8,32.5,442.2,33,442.2,33.6z M440.2,46.6V36.5h1.8v10.1H440.2z"/>
		<path id="XMLID_9_" class="st0" d="M447.3,34.1v2.4h2.6v1.4h-2.6v5.4c0,1.3,0.3,2,1.4,2c0.5,0,0.8,0,1.1-0.1l0.1,1.4
			c-0.3,0.2-0.9,0.3-1.6,0.3c-0.9,0-1.5-0.3-2-0.8c-0.5-0.5-0.7-1.4-0.7-2.6v-5.5h-1.6v-1.4h1.6v-1.9L447.3,34.1z"/>
		<path id="XMLID_5_" class="st0" d="M452.9,41.9c0,2.5,1.6,3.5,3.5,3.5c1.3,0,2.1-0.2,2.8-0.5l0.3,1.3c-0.6,0.3-1.8,0.6-3.4,0.6
			c-3.1,0-5-2.1-5-5.1c0-3,1.8-5.4,4.7-5.4c3.3,0,4.2,2.9,4.2,4.8c0,0.4,0,0.7-0.1,0.8L452.9,41.9L452.9,41.9z M458.2,40.5
			c0-1.2-0.5-3-2.5-3c-1.9,0-2.7,1.7-2.8,3H458.2z M458.7,32.1l-2.5,3h-1.3l1.8-3H458.7z"/>
	</g>
	<line id="XMLID_3_" class="st1" x1="188.9" y1="30.1" x2="188.9" y2="50.9"/>
</g>
<g id="XMLID_66_">
	<path id="XMLID_129_" class="st2" d="M21,30.2c0,1,0.2,3.3,0.4,5.2c-0.2,0.4-1.3,0.5-1.6,0.1c-0.7-2.6-2.2-4.7-6.6-4.7
		c-3.5,0-8.2,2.6-8.2,9.1c0,6.4,4.8,9.9,8.7,9.9c4.6,0,6.3-3.4,6.8-4.7c0.3-0.4,1.4-0.4,1.6,0.1c-0.3,2.1-1,4.3-1.6,5.2
		c-1.4,0.2-3.4,1-6.7,1c-3.1,0-6.1-0.5-8.6-2.2c-2.6-1.8-4.6-4.7-4.6-8.5c0-3.9,1.7-6.7,4.1-8.6c2.4-1.8,5.7-2.8,9.4-2.8
		C17.3,29.2,20.6,30.2,21,30.2"/>
	<path id="XMLID_126_" class="st2" d="M52.2,40.1c0,6.5-5,11.1-11.9,11.1c-7.6,0-12.1-4.8-12.1-10.8c0-6.4,5-11.2,12.1-11.2
		C48.2,29.2,52.2,34.3,52.2,40.1 M32.6,39.7c0,4.9,2.3,10,8,10c3.7,0,7.3-2.3,7.3-8.8c0-5.1-2.5-10.1-7.9-10.1
		C36.5,30.8,32.6,32.9,32.6,39.7"/>
	<path id="XMLID_123_" class="st2" d="M61.1,35.5c0-3.1-0.1-3.9-1.2-4.1l-1.5-0.2c-0.4-0.1-0.4-1,0.1-1.2c2.8-0.2,5.5-0.3,9.5-0.3
		c2.8,0,5.2,0.3,7.5,1c4.5,1.5,6.8,5,6.8,9.4c0,3.8-2,7.3-5.9,9.2c-2.2,1.1-5,1.5-7.4,1.5c-1.1,0-2.2,0-3.2-0.1
		c-1,0-1.9-0.1-2.7-0.1c-1.6,0-3.1,0-5,0.1c-0.4-0.1-0.4-0.9-0.1-1.2l0.9-0.1c2.1-0.3,2.3-0.5,2.3-3.8
		C61.1,45.6,61.1,35.5,61.1,35.5z M64.9,44.9c0,3.1,0.5,4.5,4.2,4.5c5.9,0,8.8-3.5,8.8-9.3c0-5.9-4.2-8.8-9.8-8.8
		c-1.6,0-2.6,0.2-3,0.5c-0.3,0.2-0.3,0.8-0.3,1.9V44.9z"/>
	<path id="XMLID_122_" class="st2" d="M119.7,34.9c0-3.3-0.2-3.5-2.4-3.8l-0.9-0.1c-0.3-0.2-0.3-1,0.1-1.2c2,0.1,3.5,0.1,5.1,0.1
		s3.2,0,4.8-0.1c0.4,0.1,0.4,0.9,0.1,1.2l-0.7,0.1c-2.1,0.5-2.4,0.5-2.4,3.8v10.3c0,1.5,0.1,2.8,0.6,3.3c0.4,0.4,1.3,0.8,3.9,0.8
		c3.1,0,4.9-0.1,6.4-4c0.3-0.3,1.2-0.2,1.3,0.2c-0.3,2-0.9,4.4-1.5,5.3c-1.5-0.1-3-0.1-4.4-0.1c-1.4,0-2.7,0-4,0h-4.2
		c-1.6,0-3.1,0-5.1,0.1c-0.4-0.1-0.4-0.9-0.1-1.2l0.9-0.1c2.2-0.3,2.4-0.5,2.4-3.8L119.7,34.9L119.7,34.9z"/>
	<path id="XMLID_121_" class="st2" d="M144.9,34.9c0-3.3-0.2-3.5-2.4-3.8l-0.9-0.1c-0.3-0.2-0.3-1,0.1-1.2c2,0.1,3.5,0.1,5.1,0.1
		s3.2,0,5.1-0.1c0.4,0.1,0.4,0.9,0.1,1.2l-0.9,0.1c-2.2,0.3-2.4,0.5-2.4,3.8v10.7c0,3.3,0.2,3.5,2.4,3.8l0.9,0.1
		c0.3,0.2,0.3,1-0.1,1.2c-1.9-0.1-3.6-0.1-5.1-0.1c-1.6,0-3.1,0-5.1,0.1c-0.4-0.1-0.4-0.9-0.1-1.2l0.9-0.1c2.2-0.3,2.4-0.5,2.4-3.8
		V34.9z"/>
	<path id="XMLID_120_" class="st2" d="M165.5,40.9c-2.4-1.2-5.1-3.1-5.1-5.7c0-3.5,2.8-5.9,7.9-5.9c1.8,0,3.6,0.4,5.3,0.7
		c0.4,0.8,0.8,2.6,0.7,4.7c-0.2,0.4-1,0.4-1.3,0.1c-0.4-1.7-2.4-4.1-5.3-4.1s-4.1,1.6-4.1,3.2c0,1.7,2,2.8,4,3.8l3.1,1.5
		c1.8,0.8,4.1,2.9,4.1,6.1c0,3.7-3.1,6.1-8,6.1c-3.1,0-4.9-1-5.6-1.5c-0.4-0.7-1-2.4-1-4.9c0.2-0.5,0.9-0.5,1.3-0.1
		c0.4,1.7,2.5,5.1,5.8,5.1c2.6,0,4.1-1.2,4.1-3.4c0-1.5-0.7-3.1-3.5-4.5L165.5,40.9z"/>
	<path id="XMLID_119_" class="st3" d="M107.6,44.9c-0.3,1-2,5.4-6.2,5.5c-4.4,0.1-7.9-1.8-7.9-7.2c0-5.3,4.3-6.7,8-6.6
		c4.1,0.1,5.7,3.7,6.2,4.9c0.3,0.6,2.5,0.4,2.5-0.3c0-3.7-1.8-8.5-4.4-10.2c-2.5-1.6-5.6-2.1-8.7-2.1c-3.3,0-5,0.6-6.4,1.1
		c-0.6,0.8-1.5,2.8-1.7,4.9c-0.1,0.6,1.3,0.7,1.7,0c0.3-0.5,2.5-4.3,6.7-4.3c2.9,0,5.8,2,7.4,4.8c-0.6-0.2-1.7-0.5-3.2-0.6
		c-2.8-0.2-5.6,0.2-8.1,1.6C91.1,37.5,89,39.5,89,43s1.6,5.5,4.2,7.2c2.5,1.6,5.9,1.8,8.9,1.7c2.6-0.1,5.3-0.6,6.5-1.2
		c0.6-0.8,1.4-3.7,1.6-5.8C110.4,44.2,107.9,43.9,107.6,44.9"/>
	<g id="XMLID_68_">
		<path id="XMLID_118_" class="st2" d="M203.9,44.2c0.8,0.5,2,0.9,3.2,0.9c1.9,0,2.9-1,2.9-2.4c0-1.3-0.8-2.1-2.6-2.8
			c-2.3-0.8-3.7-2-3.7-4c0-2.2,1.8-3.8,4.5-3.8c1.4,0,2.5,0.3,3.1,0.7l-0.5,1.5c-0.5-0.3-1.4-0.7-2.7-0.7c-1.9,0-2.6,1.1-2.6,2.1
			c0,1.3,0.9,2,2.8,2.7c2.4,0.9,3.6,2.1,3.6,4.1c0,2.2-1.6,4.1-4.9,4.1c-1.4,0-2.8-0.4-3.6-0.9L203.9,44.2z"/>
		<path id="XMLID_115_" class="st2" d="M223.7,41.3c0,3.7-2.6,5.4-5,5.4c-2.7,0-4.8-2-4.8-5.2c0-3.4,2.2-5.4,5-5.4
			C221.7,36.1,223.7,38.2,223.7,41.3z M215.7,41.4c0,2.2,1.3,3.9,3.1,3.9c1.8,0,3.1-1.6,3.1-3.9c0-1.7-0.9-3.9-3-3.9
			S215.7,39.5,215.7,41.4z"/>
		<path id="XMLID_114_" class="st2" d="M226,31.6h1.8v14.8H226V31.6z"/>
		<path id="XMLID_113_" class="st2" d="M239.3,43.7c0,1,0,2,0.1,2.7h-1.6l-0.1-1.6h0c-0.5,0.8-1.5,1.9-3.3,1.9
			c-1.6,0-3.5-0.9-3.5-4.4v-5.9h1.8v5.6c0,1.9,0.6,3.2,2.3,3.2c1.2,0,2.1-0.8,2.4-1.7c0.1-0.3,0.2-0.6,0.2-0.9v-6.2h1.8L239.3,43.7
			C239.4,43.7,239.3,43.7,239.3,43.7z"/>
		<path id="XMLID_112_" class="st2" d="M244.6,33.9v2.4h2.6v1.4h-2.6v5.4c0,1.3,0.3,2,1.4,2c0.5,0,0.8,0,1.1-0.1l0.1,1.4
			c-0.3,0.2-0.9,0.3-1.6,0.3c-0.9,0-1.5-0.3-2-0.8c-0.5-0.5-0.7-1.4-0.7-2.6v-5.5h-1.6v-1.4h1.6v-1.9L244.6,33.9z"/>
		<path id="XMLID_109_" class="st2" d="M251.3,33.5c0,0.6-0.4,1.1-1.2,1.1c-0.6,0-1.1-0.5-1.1-1.1c0-0.6,0.5-1.1,1.1-1.1
			C250.9,32.4,251.3,32.9,251.3,33.5z M249.3,46.4V36.3h1.8v10.1H249.3z"/>
		<path id="XMLID_106_" class="st2" d="M263.3,41.3c0,3.7-2.6,5.4-5,5.4c-2.7,0-4.8-2-4.8-5.2c0-3.4,2.2-5.4,5-5.4
			C261.3,36.1,263.3,38.2,263.3,41.3z M255.3,41.4c0,2.2,1.3,3.9,3.1,3.9c1.8,0,3.1-1.6,3.1-3.9c0-1.7-0.9-3.9-3-3.9
			S255.3,39.5,255.3,41.4z"/>
		<path id="XMLID_105_" class="st2" d="M265.6,39.1c0-1,0-1.9-0.1-2.7h1.6l0.1,1.7h0c0.5-1,1.7-1.9,3.3-1.9c1.4,0,3.6,0.8,3.6,4.3v6
			h-1.8v-5.8c0-1.6-0.6-3-2.3-3c-1.2,0-2.1,0.8-2.5,1.9c-0.1,0.2-0.1,0.5-0.1,0.8v6.1h-1.8L265.6,39.1L265.6,39.1z"/>
		<path id="XMLID_104_" class="st2" d="M276.9,44.6c0.5,0.3,1.5,0.7,2.4,0.7c1.3,0,2-0.7,2-1.5c0-0.9-0.5-1.4-1.9-1.9
			c-1.8-0.6-2.7-1.6-2.7-2.9c0-1.6,1.3-3,3.5-3c1,0,1.9,0.3,2.5,0.6l-0.5,1.3c-0.4-0.3-1.1-0.6-2.1-0.6c-1.1,0-1.7,0.6-1.7,1.4
			c0,0.8,0.6,1.2,1.9,1.7c1.8,0.7,2.6,1.5,2.6,3.1c0,1.8-1.4,3.1-3.8,3.1c-1.1,0-2.1-0.3-2.8-0.7L276.9,44.6z"/>
		<path id="XMLID_103_" class="st2" d="M291.7,32.4v14h-1.8v-14H291.7z"/>
		<path id="XMLID_102_" class="st2" d="M297.6,33.9h-4.3v-1.5h10.4v1.5h-4.3v12.5h-1.8V33.9L297.6,33.9z"/>
		<path id="XMLID_101_" class="st2" d="M302.8,49c0.4-1.2,1-3.5,1.2-5l2-0.2c-0.5,1.8-1.4,4.1-2,5.1L302.8,49z"/>
		<path id="XMLID_100_" class="st2" d="M322.6,46c-0.7,0.3-2,0.7-3.7,0.7c-4,0-6.9-2.5-6.9-7.1c0-4.4,3-7.4,7.3-7.4
			c1.8,0,2.9,0.4,3.3,0.6l-0.4,1.5c-0.7-0.3-1.7-0.6-2.8-0.6c-3.3,0-5.5,2.1-5.5,5.8c0,3.4,2,5.6,5.4,5.6c1.1,0,2.2-0.2,3-0.6
			L322.6,46z"/>
		<path id="XMLID_99_" class="st2" d="M324.8,31.6h1.8v14.8h-1.8V31.6z"/>
		<path id="XMLID_96_" class="st2" d="M338.8,41.3c0,3.7-2.6,5.4-5,5.4c-2.7,0-4.8-2-4.8-5.2c0-3.4,2.2-5.4,5-5.4
			C336.9,36.1,338.8,38.2,338.8,41.3z M330.8,41.4c0,2.2,1.3,3.9,3.1,3.9c1.8,0,3.1-1.6,3.1-3.9c0-1.7-0.9-3.9-3-3.9
			S330.8,39.5,330.8,41.4z"/>
		<path id="XMLID_95_" class="st2" d="M349.6,43.7c0,1,0,2,0.1,2.7H348l-0.1-1.6h0c-0.5,0.8-1.5,1.9-3.3,1.9c-1.6,0-3.5-0.9-3.5-4.4
			v-5.9h1.8v5.6c0,1.9,0.6,3.2,2.3,3.2c1.2,0,2.1-0.8,2.4-1.7c0.1-0.3,0.2-0.6,0.2-0.9v-6.2h1.8L349.6,43.7
			C349.6,43.7,349.6,43.7,349.6,43.7z"/>
		<path id="XMLID_92_" class="st2" d="M361.3,31.6v12.2c0,0.9,0,1.9,0.1,2.6h-1.6l-0.1-1.8h0c-0.6,1.1-1.8,2-3.4,2
			c-2.4,0-4.3-2.1-4.3-5.1c0-3.4,2.1-5.4,4.5-5.4c1.5,0,2.6,0.7,3.1,1.5h0v-6L361.3,31.6L361.3,31.6z M359.5,40.4
			c0-0.2,0-0.5-0.1-0.8c-0.3-1.2-1.3-2.1-2.6-2.1c-1.9,0-3,1.7-3,3.9c0,2,1,3.7,3,3.7c1.2,0,2.4-0.8,2.7-2.2
			c0.1-0.3,0.1-0.5,0.1-0.8L359.5,40.4L359.5,40.4z"/>
		<path id="XMLID_89_" class="st2" d="M369.8,41.7c0,2.5,1.6,3.5,3.5,3.5c1.3,0,2.1-0.2,2.8-0.5l0.3,1.3c-0.6,0.3-1.8,0.6-3.4,0.6
			c-3.1,0-5-2.1-5-5.1c0-3,1.8-5.4,4.7-5.4c3.3,0,4.2,2.9,4.2,4.8c0,0.4,0,0.7-0.1,0.8L369.8,41.7L369.8,41.7z M375.2,40.4
			c0-1.2-0.5-3-2.5-3c-1.9,0-2.7,1.7-2.8,3H375.2z"/>
		<path id="XMLID_88_" class="st2" d="M381.4,33.9v2.4h2.6v1.4h-2.6v5.4c0,1.3,0.3,2,1.4,2c0.5,0,0.8,0,1.1-0.1l0.1,1.4
			c-0.3,0.2-0.9,0.3-1.6,0.3c-0.9,0-1.5-0.3-2-0.8c-0.5-0.5-0.7-1.4-0.7-2.6v-5.5h-1.6v-1.4h1.6v-1.9L381.4,33.9z"/>
		<path id="XMLID_87_" class="st2" d="M402.5,40.3c-0.1-2-0.2-4.3-0.2-6.1h-0.1c-0.5,1.6-1.1,3.4-1.8,5.3l-2.5,6.8h-1.4l-2.3-6.7
			c-0.7-2-1.2-3.8-1.6-5.5h0c0,1.8-0.2,4.1-0.3,6.2l-0.4,6h-1.7l1-14h2.3l2.4,6.8c0.6,1.7,1.1,3.3,1.4,4.7h0.1
			c0.3-1.4,0.9-3,1.5-4.7l2.5-6.8h2.3l0.9,14h-1.8L402.5,40.3z"/>
		<path id="XMLID_84_" class="st2" d="M416.6,41.3c0,3.7-2.6,5.4-5,5.4c-2.7,0-4.8-2-4.8-5.2c0-3.4,2.2-5.4,5-5.4
			C414.6,36.1,416.6,38.2,416.6,41.3z M408.6,41.4c0,2.2,1.3,3.9,3.1,3.9c1.8,0,3.1-1.6,3.1-3.9c0-1.7-0.9-3.9-3-3.9
			C409.5,37.5,408.6,39.5,408.6,41.4z"/>
		<path id="XMLID_81_" class="st2" d="M418.9,31.6h1.8V38h0c0.6-1.1,1.8-1.9,3.4-1.9c2.5,0,4.3,2.1,4.3,5.2c0,3.6-2.3,5.4-4.5,5.4
			c-1.5,0-2.6-0.6-3.4-1.9h-0.1l-0.1,1.7h-1.6c0-0.7,0.1-1.7,0.1-2.6L418.9,31.6L418.9,31.6z M420.7,42.4c0,0.2,0,0.5,0.1,0.7
			c0.3,1.3,1.4,2.1,2.7,2.1c1.9,0,3.1-1.6,3.1-3.9c0-2-1-3.7-3-3.7c-1.3,0-2.4,0.8-2.8,2.3c0,0.2-0.1,0.5-0.1,0.8L420.7,42.4
			L420.7,42.4z"/>
		<path id="XMLID_78_" class="st2" d="M432.8,33.5c0,0.6-0.4,1.1-1.2,1.1c-0.6,0-1.1-0.5-1.1-1.1c0-0.6,0.5-1.1,1.1-1.1
			C432.3,32.4,432.8,32.9,432.8,33.5z M430.7,46.4V36.3h1.8v10.1H430.7z"/>
		<path id="XMLID_77_" class="st2" d="M435.6,31.6h1.8v14.8h-1.8V31.6z"/>
		<path id="XMLID_74_" class="st2" d="M442.6,33.5c0,0.6-0.4,1.1-1.2,1.1c-0.6,0-1.1-0.5-1.1-1.1c0-0.6,0.5-1.1,1.1-1.1
			C442.1,32.4,442.6,32.9,442.6,33.5z M440.5,46.4V36.3h1.8v10.1H440.5z"/>
		<path id="XMLID_73_" class="st2" d="M447.6,33.9v2.4h2.6v1.4h-2.6v5.4c0,1.3,0.3,2,1.4,2c0.5,0,0.8,0,1.1-0.1l0.1,1.4
			c-0.3,0.2-0.9,0.3-1.6,0.3c-0.9,0-1.5-0.3-2-0.8c-0.5-0.5-0.7-1.4-0.7-2.6v-5.5h-1.6v-1.4h1.6v-1.9L447.6,33.9z"/>
		<path id="XMLID_69_" class="st2" d="M453.2,41.7c0,2.5,1.6,3.5,3.5,3.5c1.3,0,2.1-0.2,2.8-0.5l0.3,1.3c-0.6,0.3-1.8,0.6-3.4,0.6
			c-3.1,0-5-2.1-5-5.1c0-3,1.8-5.4,4.7-5.4c3.3,0,4.2,2.9,4.2,4.8c0,0.4,0,0.7-0.1,0.8L453.2,41.7L453.2,41.7z M458.6,40.4
			c0-1.2-0.5-3-2.5-3c-1.9,0-2.7,1.7-2.8,3H458.6z M459,32l-2.5,3h-1.3l1.8-3H459z"/>
	</g>
	<line id="XMLID_67_" class="st4" x1="189.2" y1="29.9" x2="189.2" y2="50.7"/>
</g>
</svg>
